<?xml version="1.0" encoding="UTF-8"?>
<svg width="200" height="200" version="1.1" xmlns="http://www.w3.org/2000/svg">
 <g fill="none" stroke="#000">
  <circle cx="100" cy="20.429" r="14.118" stroke-width="9.05"/>
  <circle cx="100" cy="179.57" r="14.118" stroke-width="9.05"/>
  <path d="m100 34.739v130.52" stroke-width="8.5856"/>
 </g>
</svg>
